{
   "host":"localhost",
   "port":"8081",
   "jwt_expiretime": "36000",
   "channelName":"tnschannel",
   "CC_SRC_PATH":"../chaincode",
   "eventWaitTime":"30000",
   "admins":[
      {
         "username":"Admin1",
         "secret":"adminpw"
      }
   ]
}
