{
    "network-config": { 
        "org1": {
            "name": "Org1",
            "mspid": "Org1MSP",
            "peer0": {
                "requests": "grpc://192.168.0.117:7051",
                "events": "grpc://192.168.0.117:7053",
                "server-hostname": "peer0.org1.obchain.net",
                "tls_cacerts": "../../fabric/crypto-config/peerOrganizations/org1.obchain.net/peers/peer0.org1.obchain.net/tls/ca.crt"
            },          
            "peer1": {
                "requests": "grpc://192.168.0.118:7051",
                "events": "grpc://192.168.0.118:7053",
                "server-hostname": "peer1.org1.obchain.net",
                "tls_cacerts": "../../fabric/crypto-config/peerOrganizations/org1.obchain.net/peers/peer1.org1.obchain.net/tls/ca.crt"
            },
            "peer2": {
                "requests": "grpc://192.168.0.119:7051",
                "events": "grpc://192.168.0.119:7053",
                "server-hostname": "peer2.org1.obchain.net",
                "tls_cacerts": "../../fabric/crypto-config/peerOrganizations/org1.obchain.net/peers/peer2.org1.obchain.net/tls/ca.crt"
            },
            "admin": {
                "key": "../../fabric/crypto-config/peerOrganizations/org1.obchain.net/users/Admin@org1.obchain.net/msp/keystore",
                "cert": "../../fabric/crypto-config/peerOrganizations/org1.obchain.net/users/Admin@org1.obchain.net/msp/signcerts"
            }
        }       
    },
   "host":"localhost",
   "port":"8080",
   "channel": "obchannel01",
   "GOPATH":"../chaincode",
   "keyValueStore":"/tmp/fabric-client-kvs",
   "eventWaitTime":"30000",     
   "mysql":{
      "host":"127.0.0.1",
      "port":"3306",
      "database":"fabricexplorer",
      "username":"root",
      "passwd":"bccore123$!"
   }
}

